…
``` r
unemployment
```

    ## # A tibble: 68 x 13
    ##    year   jan   feb   mar   apr   may   jun   jul   aug   sep   oct   nov
    ##   <dbl> <dbl> <dbl> <dbl> <dbl> <dbl> <dbl> <dbl> <dbl> <dbl> <dbl> <dbl>
    ## 1  1948   3.4   3.8   4     3.9   3.5   3.6   3.6   3.9   3.8   3.7   3.8
    ## 2  1949   4.3   4.7   5     5.3   6.1   6.2   6.7   6.8   6.6   7.9   6.4
    ## 3  1950   6.5   6.4   6.3   5.8   5.5   5.4   5     4.5   4.4   4.2   4.2
    ## # ... with 65 more rows, and 1 more variable: dec <dbl>

``` r
unemployment_tidy = 
  pivot_longer(
    unemployment,
    jan:dec,
    names_to = "month",
    values_to = "unemploy_rate"
  )

unemployment_tidy
```

    ## # A tibble: 816 x 3
    ##    year month unemploy_rate
    ##   <dbl> <chr>         <dbl>
    ## 1  1948 jan             3.4
    ## 2  1948 feb             3.8
    ## 3  1948 mar             4  
    ## # ... with 813 more rows
